{
  "page": 1,
  "total_results": 25,
  "total_pages": 2,
  "results": [
    {
      "vote_count": 60,
      "id": 456929,
      "video": false,
      "vote_average": 7.8,
      "title": "Champions",
      "popularity": 16.978,
      "poster_path": "/m5z4Ud6Ya5EY3Eg3OBbVBaDKWK.jpg",
      "original_language": "es",
      "original_title": "Campeones",
      "genre_ids": [18, 35],
      "backdrop_path": "/8s231Ufkl9jF2JVnoZtQUxPXsSl.jpg",
      "adult": false,
      "overview": "A disgraced basketball coach is given the chance to coach Los Amigos, a team of players who are intellectually disabled, and soon realizes they just might have what it takes to make it to the national championships.",
      "release_date": "2018-04-06"
    },
    {
      "vote_count": 1,
      "id": 539230,
      "video": false,
      "vote_average": 6,
      "title": "Campeones",
      "popularity": 0.71,
      "poster_path": "/yZUtDCT2lzvHHZHlNIpCRyLQuAw.jpg",
      "original_language": "es",
      "original_title": "Campeones",
      "genre_ids": [18],
      "backdrop_path": "/luparsbtup3W25Sj9BhY7C7GELM.jpg",
      "adult": false,
      "overview": "",
      "release_date": "2018-05-15"
    },
    {
      "vote_count": 0,
      "id": 452566,
      "video": false,
      "vote_average": 0,
      "title": "¡¡Campeones!!",
      "popularity": 0.303,
      "poster_path": "/xBqcFyJqNY3GUB2LsbNmYIOCJ98.jpg",
      "original_language": "es",
      "original_title": "¡¡Campeones!!",
      "genre_ids": [],
      "backdrop_path": null,
      "adult": false,
      "overview": "",
      "release_date": ""
    },
    {
      "vote_count": 165,
      "id": 14709,
      "video": false,
      "vote_average": 6.2,
      "title": "Varsity Blues",
      "popularity": 5.526,
      "poster_path": "/nnVA3Nmry9furen0NDmJa0QTn2F.jpg",
      "original_language": "en",
      "original_title": "Varsity Blues",
      "genre_ids": [35, 18, 10749],
      "backdrop_path": "/vQ6m3a4rdZyKJ7To2oCV3WSyVPE.jpg",
      "adult": false,
      "overview": "In small-town Texas, high school football is a religion, 17-year-old schoolboys carry the hopes of an entire community onto the gridiron every Friday night. When star quarterback Lance Harbor suffers an injury, the Coyotes are forced to regroup under the questionable leadership of John Moxon, a second-string quarterback with a slightly irreverent approach to the game.",
      "release_date": "1999-01-15"
    },
    {
      "vote_count": 75,
      "id": 238751,
      "video": false,
      "vote_average": 6.3,
      "title": "Best of the Best",
      "popularity": 4.514,
      "poster_path": "/u8hlLwfuXK4rLg2kjRWM4xZj0Vl.jpg",
      "original_language": "en",
      "original_title": "Best of the Best",
      "genre_ids": [28, 18, 14],
      "backdrop_path": "/rcQLOkPiFoLtDFhzptOnsP71NX8.jpg",
      "adult": false,
      "overview": "A team from the United States is going to compete against Korea in a Tae Kwon Do tournament. The team consists of fighters from all over the country--can they overcome their rivalry and work together to win?",
      "release_date": "1989-11-10"
    },
    {
      "vote_count": 281,
      "id": 10414,
      "video": false,
      "vote_average": 6.5,
      "title": "The Mighty Ducks",
      "popularity": 4.331,
      "poster_path": "/4qXfjDlDEGuN3xRNawh4WZo5o96.jpg",
      "original_language": "en",
      "original_title": "The Mighty Ducks",
      "genre_ids": [35, 10751],
      "backdrop_path": "/jbREFnhxvVFCfgdMLkcI7Fb3Hz7.jpg",
      "adult": false,
      "overview": "After reckless young lawyer Gordon Bombay gets arrested for drunk driving, he must coach a kids hockey team for his community service. Gordon has experience on the ice, but isn't eager to return to hockey, a point hit home by his tense dealings with his own former coach, Jack Reilly. The reluctant Gordon eventually grows to appreciate his team, which includes promising young Charlie Conway, and leads them to take on Reilly's tough players.",
      "release_date": "1992-10-02"
    },
    {
      "vote_count": 146,
      "id": 10680,
      "video": false,
      "vote_average": 5.3,
      "title": "D3: The Mighty Ducks",
      "popularity": 5.609,
      "poster_path": "/umoEeNQqhvUg7jnpdGZnvNHCRFS.jpg",
      "original_language": "en",
      "original_title": "D3: The Mighty Ducks",
      "genre_ids": [28, 35, 18, 10751],
      "backdrop_path": "/fh3FYAYSM0cZr648ooN033UlxvN.jpg",
      "adult": false,
      "overview": "The Ducks are offered scholarships at Eden Hall Academy but struggle with their new coach's methods and come under pressure from the board to retain their scholarships before their big game against the Varsity team.",
      "release_date": "1996-10-04"
    },
    {
      "vote_count": 198,
      "id": 11164,
      "video": false,
      "vote_average": 5.9,
      "title": "D2: The Mighty Ducks",
      "popularity": 6.949,
      "poster_path": "/ZITicpWKxy2d3JnpWMypbUn91e.jpg",
      "original_language": "en",
      "original_title": "D2: The Mighty Ducks",
      "genre_ids": [28, 35, 18, 10751],
      "backdrop_path": "/s7RrWXNfQDU6nO9XriBnL3kZD4g.jpg",
      "adult": false,
      "overview": "After Gordon Bombay's hockey comeback is cut short he is named coach of Team USA Hockey for the Junior Goodwill Games. Bombay reunites the Mighty Ducks and introduces a few new players, however, he finds himself distracted by his newfound fame and must regather if the Ducks are to defeat tournament favourites Iceland.",
      "release_date": "1994-03-25"
    },
    {
      "vote_count": 38,
      "id": 12479,
      "video": false,
      "vote_average": 5.4,
      "title": "Breakfast of Champions",
      "popularity": 2.773,
      "poster_path": "/oOEkGtAcysCV1pJAB3qFlOG76hj.jpg",
      "original_language": "en",
      "original_title": "Breakfast of Champions",
      "genre_ids": [35],
      "backdrop_path": "/61Woa0KSlUBPxlb10rxNA34ISD2.jpg",
      "adult": false,
      "overview": "A portrait of a fictional town in the mid west that is home to a group of idiosyncratic and slightly neurotic characters. Dwayne Hoover is a wealthy car dealer-ship owner that's on the brink of suicide and is losing touch with reality.",
      "release_date": "1999-02-13"
    },
    {
      "vote_count": 39,
      "id": 32049,
      "video": false,
      "vote_average": 5.9,
      "title": "Best of the Best 2",
      "popularity": 4.222,
      "poster_path": "/tu7xa8yzywtOjuffN5jEakqIp5N.jpg",
      "original_language": "en",
      "original_title": "Best of the Best 2",
      "genre_ids": [28, 53],
      "backdrop_path": "/fShy3BQNjlU71E9BxTpJC8u3J27.jpg",
      "adult": false,
      "overview": "In an underground fight club, blackbelt Travis Brickley is killed after losing to the evil martial arts master Brakus. Travis' death is witnessed by Walter Grady, the son of his best friend Alex Grady. Alex and his partner, Tommy Lee, vow to avenge their friend's death by defeating Brakus and shutting down the fight club.",
      "release_date": "1993-01-01"
    },
    {
      "vote_count": 9,
      "id": 83105,
      "video": false,
      "vote_average": 4.3,
      "title": "The Boy in Blue",
      "popularity": 0.911,
      "poster_path": "/a1sndTTt2y8L5ePx4LrcXMcNWdD.jpg",
      "original_language": "en",
      "original_title": "The Boy in Blue",
      "genre_ids": [18],
      "backdrop_path": "/7gG99KfDA4iBXzHyaifURh8VHR1.jpg",
      "adult": false,
      "overview": "Ned Hanlan was Canada's most successful sculling champion at the turn of the 20th century. This dramatization of his life begins in his youth, when the wild young man is informally adopted by a gambler who promotes Ned on the sculling circuit, betting on the boy's rowing skills solely to make money off him. Later, a ruthless businessman named Knox takes over Ned's career, but when Ned realizes how dishonest Knox is, he finds another manager. Walter is an inventor and the first honest man Ned has dealt with in his career and, under Walter's guidance, Ned rises to great success in the sculling world.",
      "release_date": "1986-01-17"
    },
    {
      "vote_count": 17,
      "id": 36555,
      "video": false,
      "vote_average": 5.7,
      "title": "Best of the Best 3: No Turning Back",
      "popularity": 2.421,
      "poster_path": "/iZIgaTii38fOSmUXnKYx1JaLZXx.jpg",
      "original_language": "en",
      "original_title": "Best of the Best 3: No Turning Back",
      "genre_ids": [28],
      "backdrop_path": "/9ZyD3BXxkqrEVMQvnc8WBPxn26I.jpg",
      "adult": false,
      "overview": "Tommy Lee (Phillip Rhee) comes to visit his sister and finds that the town is being overrun with members of the Arian brotherhood. These Arian brothers certainly weren't expecting a Taekwondo expert to show up. Tommy and his sister's husband played by Christopher Mcdonald team up to stop the racism. whats better than watching neo-nazis get the crap kicked out of them? when the person kicking the crap out of them is dressed like homie the killer clown, complete with big red shoes and a foam nose. and thats just ONE of the MANY many many many many many cinematic jewels contained within this action packed blessing to the silver screen.this is the best worst martial arts film since sonny chiba's street fighter! you don't believe me? see for yourself namby-pants and check out the best of the best 3. now!!!",
      "release_date": "1995-05-17"
    },
    {
      "vote_count": 3,
      "id": 98131,
      "video": false,
      "vote_average": 3.5,
      "title": "The Champions of Justice",
      "popularity": 0.157,
      "poster_path": "/qDmtrE9iUT1JP92f3VRBVQoAXld.jpg",
      "original_language": "es",
      "original_title": "Los campeones justicieros",
      "genre_ids": [28, 12, 878],
      "backdrop_path": null,
      "adult": false,
      "overview": "Blue Demon and pals square off against the Black Hand's army of super powered midgets. Five luchadores (Blue Demon, Mil Mascaras, El Medico Asesino, La Sombra Vengadora, Tinieblas plus Black Shadow) face off against a mad scientist and his army of powerful wrestling midgets.",
      "release_date": "1971-01-21"
    },
    {
      "vote_count": 11,
      "id": 36567,
      "video": false,
      "vote_average": 6,
      "title": "Best of the Best 4: Without Warning",
      "popularity": 1.434,
      "poster_path": "/mWkdM2xjjKwz5rZIhWjI4sDhGP0.jpg",
      "original_language": "en",
      "original_title": "Best of the Best 4: Without Warning",
      "genre_ids": [28, 53, 12],
      "backdrop_path": "/6VQEfjNPaspZeccPQPf3gWQHUt9.jpg",
      "adult": false,
      "overview": "A group of Russian mobsters have stolen a huge supply of paper for printing U.S. currency, and are now flooding the market with conterfeit bills. When one of the mobsters decides to give herself in and hand over a data CD to the DA, she is shot and killed, but not before handing the disc to an unsuspecting Tommy Lee. Despite working with the police as a martial arts instructor, Lee doesn't go to the cops with the disc, but instead goes on the run, giving the mafia time to kidnap his daughter and hold as a hostage in exchange for return of the disc. Will Tommy ever see his daughter again?",
      "release_date": "1998-10-10"
    },
    {
      "vote_count": 3,
      "id": 22236,
      "video": false,
      "vote_average": 5,
      "title": "Chok-Dee",
      "popularity": 0.538,
      "poster_path": "/eEPO4g6cZNSi9LrMVmj1BiIBOpD.jpg",
      "original_language": "fr",
      "original_title": "Chok-Dee",
      "genre_ids": [18, 28],
      "backdrop_path": "/X31AjJcEhWQP7NovkFIWABHlg9.jpg",
      "adult": false,
      "overview": "Dida Diafat plays himself in this story based around his thai boxing career.",
      "release_date": "2005-02-16"
    },
    {
      "vote_count": 1,
      "id": 203569,
      "video": false,
      "vote_average": 8,
      "title": "1978 FIFA World Cup Official Film: Campeones",
      "popularity": 0.116,
      "poster_path": "/m7z1i6V8dW5FWo7cJHOFafzkJHD.jpg",
      "original_language": "en",
      "original_title": "1978 FIFA World Cup Official Film: Campeones",
      "genre_ids": [99],
      "backdrop_path": "/dVJVtFiPXXHLmRfDageeVdyi0NK.jpg",
      "adult": false,
      "overview": "Argentina, as hosts in 1978, were under great pressure to succeed. Amidst passionate supporters, they progressed to the finals with a wonderful blend of attacking football and tough defending. The unlucky Dutch, now lacking Cruyffs' sublime skills, were the fall guys once again in the Final, losing 3-1 in a classic clash of styles.",
      "release_date": "1978-06-25"
    },
    {
      "vote_count": 2,
      "id": 388406,
      "video": false,
      "vote_average": 7.3,
      "title": "\"Campe0nes\"",
      "popularity": 2.894,
      "poster_path": "/oJ4ekOowerAJwVZFBuiv5XebcbD.jpg",
      "original_language": "es",
      "original_title": "\"Campe0nes\"",
      "genre_ids": [],
      "backdrop_path": "/luparsbtup3W25Sj9BhY7C7GELM.jpg",
      "adult": false,
      "overview": "A professional coach has under his wing the team that is expected to qualify and play the FIFA U-17 World Cup. A fictionalized drama inspired by the story of Jesús Ramírez, the mexican coach.",
      "release_date": "2018-05-26"
    },
    {
      "vote_count": 2,
      "id": 116698,
      "video": false,
      "vote_average": 6.5,
      "title": "That Championship Season",
      "popularity": 0.078,
      "poster_path": "/8TQcvlteF1QaVpdilxn5DwVcjvA.jpg",
      "original_language": "en",
      "original_title": "That Championship Season",
      "genre_ids": [18],
      "backdrop_path": null,
      "adult": false,
      "overview": "It started as a friendly meeting between 4 old buddies with their basketball coach and ended up in revealing the truth about their relationship. The meeting forces the five men to reveal their true identity, to be honest with each other for the first time in their lives. When the night comes to an end they decide to go back to the old glorious days and reunite into the team which won that championship season, back in 1957.",
      "release_date": "1982-12-09"
    },
    {
      "vote_count": 1,
      "id": 115676,
      "video": false,
      "vote_average": 5,
      "title": "Triumph of the Champions of Justice",
      "popularity": 0.036,
      "poster_path": "/1832hvGvMPGJqIeZCyEzHSTIZd4.jpg",
      "original_language": "es",
      "original_title": "El triunfo de los campeones justicieros",
      "genre_ids": [],
      "backdrop_path": null,
      "adult": false,
      "overview": "Mano Negra sends a group of alien dwarves led by Aker to the state laboratory  to kidnap the professor Arego and obtain the formula for the cultivation of microorganisms. The formula is divided among his four daughters and most work at a circus. The aliens take capsules that make themselves invisible, kidnap the girls and are eventually revealed to be blue-skinned, red-eyed monsters who are reduced to a puddle of green goo when killed.",
      "release_date": "1974-02-07"
    },
    {
      "vote_count": 5,
      "id": 67693,
      "video": false,
      "vote_average": 4,
      "title": "Jocks",
      "popularity": 0.811,
      "poster_path": "/tgjpxqrugdbnADyKGvo65kySaBL.jpg",
      "original_language": "en",
      "original_title": "Jocks",
      "genre_ids": [35],
      "backdrop_path": "/5JOABPf0OORJqmSMs7KmpiJjouJ.jpg",
      "adult": false,
      "overview": "The coach of a college tennis team is given an ultimatum: put together a winning team, or else.",
      "release_date": "1986-11-14"
    }
  ]
}
