{
  "page": 1,
  "total_results": 363,
  "total_pages": 19,
  "results": [
    {
      "vote_count": 24,
      "id": 408873,
      "video": false,
      "vote_average": 6.3,
      "title": "Kings",
      "popularity": 7.95,
      "poster_path": "/sEQIshX0y64hYjjDbE1KqevW04e.jpg",
      "original_language": "en",
      "original_title": "Kings",
      "genre_ids": [10749, 18, 80],
      "backdrop_path": "/qTRg8UGaf4KZDleEKVGomv2T4tk.jpg",
      "adult": false,
      "overview": "A foster family in South Central a few weeks before the city erupts in violence following the verdict of the Rodney King trial in 1992.",
      "release_date": "2017-11-11"
    },
    {
      "vote_count": 910,
      "id": 6415,
      "video": false,
      "vote_average": 6.7,
      "title": "Three Kings",
      "popularity": 8.642,
      "poster_path": "/7CPVhTgTU5s1a2chC4yne9FuYV7.jpg",
      "original_language": "en",
      "original_title": "Three Kings",
      "genre_ids": [28, 12, 35],
      "backdrop_path": "/mJpepArAQPc14jprmaBEGbny2y8.jpg",
      "adult": false,
      "overview": "A group of American soldiers stationed in Iraq at the end of the Gulf War find a map they believe will take them to a huge cache of stolen Kuwaiti gold hidden near their base, and they embark on a secret mission that's destined to change everything.",
      "release_date": "1999-09-27"
    },
    {
      "vote_count": 528,
      "id": 1266,
      "video": false,
      "vote_average": 6.4,
      "title": "Street Kings",
      "popularity": 7.676,
      "poster_path": "/2h2mThLae2QZLprtovKXRBgMM1E.jpg",
      "original_language": "en",
      "original_title": "Street Kings",
      "genre_ids": [28, 80, 18, 53],
      "backdrop_path": "/vQL3dus5e8XtpAiJKFcI8YiITlV.jpg",
      "adult": false,
      "overview": "Tom Ludlow is a disillusioned L.A. Police Officer, rarely playing by the rules and haunted by the death of his wife. When evidence implicates him in the execution of a fellow officer, he is forced to go up against the cop culture he's been a part of his entire career, ultimately leading him to question the loyalties of everyone around him.",
      "release_date": "2008-04-10"
    },
    {
      "vote_count": 2497,
      "id": 147441,
      "video": false,
      "vote_average": 5.7,
      "title": "Exodus: Gods and Kings",
      "popularity": 12.813,
      "poster_path": "/ycDcPCpWM7hSdIR6tFkOzQPkve2.jpg",
      "original_language": "en",
      "original_title": "Exodus: Gods and Kings",
      "genre_ids": [12, 18, 28],
      "backdrop_path": "/hOOgtrByGgWfqGTTn5VL7jkLYXJ.jpg",
      "adult": false,
      "overview": "The defiant leader Moses rises up against the Egyptian Pharaoh Ramses, setting 400,000 slaves on a monumental journey of escape from Egypt and its terrifying cycle of deadly plagues.",
      "release_date": "2014-12-03"
    },
    {
      "vote_count": 112,
      "id": 10668,
      "video": false,
      "vote_average": 6.7,
      "title": "Suicide Kings",
      "popularity": 6.479,
      "poster_path": "/rQ2Sidqubi7XiHDScFe1faIz3Uv.jpg",
      "original_language": "en",
      "original_title": "Suicide Kings",
      "genre_ids": [28, 35, 80, 18, 53],
      "backdrop_path": "/nbRimqJsUanW7UnIpr0xsGXx3jy.jpg",
      "adult": false,
      "overview": "Christopher Walken shines in this cult-favorite dark comedy as Charlie, a former mobster who is abducted by five privileged young men (Sean Patrick Flanery, Johnny Galecki, Jay Mohr, Jeremy Sisto, Henry Thomas) desperate to raise a $2 million ransom to save the sister of a friend. As Charlie plays mind games, however, his captors splinter -- each wondering whether one of their own had a hand in the crime.",
      "release_date": "1998-04-17"
    },
    {
      "vote_count": 570,
      "id": 156700,
      "video": false,
      "vote_average": 7,
      "title": "The Kings of Summer",
      "popularity": 8.064,
      "poster_path": "/4HGYmH5mYcBBTIMHhbOBdT1Antl.jpg",
      "original_language": "en",
      "original_title": "The Kings of Summer",
      "genre_ids": [35, 18],
      "backdrop_path": "/cN7dCe6ig4ZVbBbGqO5m4oZvink.jpg",
      "adult": false,
      "overview": "Joe Toy, on the verge of adolescence, finds himself increasingly frustrated by his single father, Frank's attempts to manage his life. Declaring his freedom once and for all, he escapes to a clearing in the woods with his best friend, Patrick, and a strange kid named Biaggio. He announces that they are going to build a house there, free from responsibility and parents. Once their makeshift abode is finished, the three young men find themselves masters of their own destiny, alone in the woods.",
      "release_date": "2013-01-19"
    },
    {
      "vote_count": 1,
      "id": 435145,
      "video": false,
      "vote_average": 6,
      "title": "Kings Bay",
      "popularity": 2.796,
      "poster_path": "/6LsR8tw72XTgxdXatiCzf4qHFSH.jpg",
      "original_language": "no",
      "original_title": "Kings Bay",
      "genre_ids": [53],
      "backdrop_path": "/6MeOvEvbL1M8araf2M8DDOTMu2w.jpg",
      "adult": false,
      "overview": "21 died in the explosion in the kings bay-accident in Ny-Ålesund in Spitsbergen i 1962. The accident led to the fall of the Norwegian labor party government ruling since WW2. Was this really an accident, and was it under Norwegian control?",
      "release_date": "2017-01-27"
    },
    {
      "vote_count": 78,
      "id": 10548,
      "video": false,
      "vote_average": 7.6,
      "title": "When We Were Kings",
      "popularity": 4.014,
      "poster_path": "/wAw3KIEuQGIwhCBWtvWFQRItz0d.jpg",
      "original_language": "en",
      "original_title": "When We Were Kings",
      "genre_ids": [99],
      "backdrop_path": "/f6SSam3qrMz5y8Yrc0SqvWCpsQY.jpg",
      "adult": false,
      "overview": "It's 1974. Muhammad Ali is 32 and thought by many to be past his prime. George Foreman is ten years younger and the heavyweight champion of the world. Promoter Don King wants to make a name for himself and offers both fighters five million dollars apiece to fight one another, and when they accept, King has only to come up with the money. He finds a willing backer in Mobutu Sese Suko, the dictator of Zaire, and the \"Rumble in the Jungle\" is set, including a musical festival featuring some of America's top black performers, like James Brown and B.B. King.",
      "release_date": "1996-10-25"
    },
    {
      "vote_count": 48,
      "id": 36362,
      "video": false,
      "vote_average": 7.1,
      "title": "King of Kings",
      "popularity": 3.376,
      "poster_path": "/w7ZihCBZOVXL827GKUbYiGnWSdX.jpg",
      "original_language": "en",
      "original_title": "King of Kings",
      "genre_ids": [18],
      "backdrop_path": "/sdMXmahcfL8eo4wXzkgVHDPGBc2.jpg",
      "adult": false,
      "overview": "Who is Jesus, and why does he impact all he meets? He is respected and reviled, emulated and accused, beloved, betrayed, and finally crucified. Yet that terrible fate would not be the end of the story.",
      "release_date": "1961-10-11"
    },
    {
      "vote_count": 18,
      "id": 364761,
      "video": false,
      "vote_average": 7.2,
      "title": "4 Kings",
      "popularity": 2.092,
      "poster_path": "/6nAXjrMGIAqz7TIK5xET7QhtAVi.jpg",
      "original_language": "de",
      "original_title": "4 Könige",
      "genre_ids": [18],
      "backdrop_path": "/feeekxq4P7lC4ICXoy6xrPQo8A6.jpg",
      "adult": false,
      "overview": "Alex, Fedja, Timo and Lara are four troubled teens for whom the upcoming Christmas eve isn't a time of peace and joy: Since they all have a history of escalating family conflicts, they'll be spending the holidays not at home, but in a psychiatric ward. The utterly different adolescents not only have to adjust to one another, but also have to confront themselves in exhausting therapy sessions. Yet thanks to the unorthodox psychiatrist Dr. Wolf, the sessions take a turn for the unexpected - and the four experience a Christmas which they will never forget.",
      "release_date": "2015-12-03"
    },
    {
      "vote_count": 4081,
      "id": 45269,
      "video": false,
      "vote_average": 7.7,
      "title": "The King's Speech",
      "popularity": 10.004,
      "poster_path": "/nkFTbA1XjKWo9LCTaV1hV2Lsgr1.jpg",
      "original_language": "en",
      "original_title": "The King's Speech",
      "genre_ids": [18, 36],
      "backdrop_path": "/pJnU0JArW4aLcOoS9u2vQHDGJpK.jpg",
      "adult": false,
      "overview": "The King's Speech tells the story of the man who became King George VI, the father of Queen Elizabeth II. After his brother abdicates, George ('Bertie') reluctantly assumes the throne. Plagued by a dreaded stutter and considered unfit to be king, Bertie engages the help of an unorthodox speech therapist named Lionel Logue. Through a set of unexpected techniques, and as a result of an unlikely friendship, Bertie is able to find his voice and boldly lead the country into war.",
      "release_date": "2010-09-06"
    },
    {
      "vote_count": 40,
      "id": 40082,
      "video": false,
      "vote_average": 6.2,
      "title": "The Mambo Kings",
      "popularity": 2.722,
      "poster_path": "/yAMYoODA6FzHPwycrBwwrjKv1A4.jpg",
      "original_language": "en",
      "original_title": "The Mambo Kings",
      "genre_ids": [18, 10402],
      "backdrop_path": "/2yqKq6Fenh17QJZrsXRskWLx9tq.jpg",
      "adult": false,
      "overview": "The Mambo Kings tells the story of César and Nestor Castillo, brothers and aspiring musicians who flee from Cuba to America in search of the American Dream.",
      "release_date": "1992-02-28"
    },
    {
      "vote_count": 1,
      "id": 444555,
      "video": false,
      "vote_average": 6,
      "title": "Kings, Queens, & In-Betweens",
      "popularity": 2.711,
      "poster_path": "/16KFAg6bBsnDk3OWhKXqaC132K3.jpg",
      "original_language": "en",
      "original_title": "Kings, Queens, & In-Betweens",
      "genre_ids": [99],
      "backdrop_path": null,
      "adult": false,
      "overview": "A documentary on drag queens, kings, &amp; transgender performers in Columbus, OH who tackle the complexities of gender expression, identity, sexuality, discrimination, family, &amp; politics--all with humor, pathos, &amp; duct tape.",
      "release_date": "2017-03-03"
    },
    {
      "vote_count": 33,
      "id": 58625,
      "video": false,
      "vote_average": 4.4,
      "title": "Street Kings 2: Motor City",
      "popularity": 3.455,
      "poster_path": "/svVKzBrVQSvu8Wgut5xrUocwlKm.jpg",
      "original_language": "en",
      "original_title": "Street Kings 2: Motor City",
      "genre_ids": [80, 18, 53],
      "backdrop_path": "/ho7jLHVAwI4W3qWHcsLmFyRWsKl.jpg",
      "adult": false,
      "overview": "Ray Liotta (Goodfellas) delivers an intense, electrifying performance in this explosive follow-up to the gritty urban crime thriller Street Kings. Liotta plays Detroit detective Marty Kingston, the leader of an undercover narcotics team, whose members are being systematically murdered one by one. To solve the brutal killings, Kingston joins forces with a cocky, young homicide detective. But neither of them is prepared for the shocking corruption their investigation will uncover — stunning secrets that will set both men on a violent collision course with betrayal and vengeance.",
      "release_date": "2011-07-15"
    },
    {
      "vote_count": 60,
      "id": 10004,
      "video": false,
      "vote_average": 5.3,
      "title": "Desperation",
      "popularity": 7.548,
      "poster_path": "/gylEhsF0MrRkwLtwzoGiDhxJb6E.jpg",
      "original_language": "en",
      "original_title": "Desperation",
      "genre_ids": [18, 14, 27, 53, 9648],
      "backdrop_path": "/dWW7kkgzOjlWQLxMuDd4HxSADGU.jpg",
      "adult": false,
      "overview": "When a sheriff arrests a writer, a family, a couple, and a hitchiker and throws them in a jail cell in the deserted town of Desperation, they must fight for their lives.",
      "release_date": "2006-05-23"
    },
    {
      "vote_count": 92,
      "id": 18298,
      "video": false,
      "vote_average": 5.4,
      "title": "The Three Kings",
      "popularity": 3.882,
      "poster_path": "/tKEaA0MiliEQZjGMzDmRwkLasKN.jpg",
      "original_language": "fr",
      "original_title": "Les Rois Mages",
      "genre_ids": [35, 12, 14],
      "backdrop_path": "/1qjFtKMBfeBdfKzFuFw13PmlBgE.jpg",
      "adult": false,
      "overview": "The Three Wise Men – Balthazar, Melchior and Gaspard – are on their way to Bethlehem to pay homage to the infant Jesus when they are suddenly, an inexplicably, transported two thousand years into the future. They find themselves walking the streets of Paris, where they encounter a young woman called Macha who, they are convinced, will lead them to the newborn Messiah.",
      "release_date": "2001-12-12"
    },
    {
      "vote_count": 11,
      "id": 342786,
      "video": false,
      "vote_average": 7.1,
      "title": "Rubble Kings",
      "popularity": 0.882,
      "poster_path": "/v3vO4e3ZXERgZt6EoJHWsRKGZCI.jpg",
      "original_language": "en",
      "original_title": "Rubble Kings",
      "genre_ids": [99],
      "backdrop_path": "/9orePKyRB4P9WvlJqtfrashYVds.jpg",
      "adult": false,
      "overview": "Through archival footage Nicholson tells the story of the real Warriors that walked the streets of New York City in the 1970s and the harsh reality of gang life in a city that seemed to be falling apart.",
      "release_date": "2015-06-19"
    },
    {
      "vote_count": 125,
      "id": 1717,
      "video": false,
      "vote_average": 5.8,
      "title": "All the King's Men",
      "popularity": 8.7,
      "poster_path": "/rnmq4QBAWhxULd12PhlCFa1RjHa.jpg",
      "original_language": "en",
      "original_title": "All the King's Men",
      "genre_ids": [18, 53],
      "backdrop_path": "/hOxFHGn5wEn824GkswqXrcJpnMG.jpg",
      "adult": false,
      "overview": "The story of an idealist's rise to power in the world of Louisiana politics and the corruption that leads to his ultimate downfall. Based on the1946 Pulitzer Prize-winning novel written by Robert Penn Warren.",
      "release_date": "2006-09-10"
    },
    {
      "vote_count": 2,
      "id": 432165,
      "video": false,
      "vote_average": 9.5,
      "title": "The Pagan King",
      "popularity": 7.109,
      "poster_path": "/h1dH8MmGfeTqbLh8ZoIZaq64bkg.jpg",
      "original_language": "lv",
      "original_title": "Nameja gredzens",
      "genre_ids": [36, 12, 28],
      "backdrop_path": "/xQvzelWfqcr0Wz8ddDmZwtXqME.jpg",
      "adult": false,
      "overview": "On his deathbed, the reigning king bestows power to an unexpected heir who must find strength within himself to unite his people against the violent crusades which threaten their freedom.",
      "release_date": "2018-01-17"
    },
    {
      "vote_count": 1,
      "id": 390554,
      "video": false,
      "vote_average": 6,
      "title": "Kings' Shift",
      "popularity": 0.634,
      "poster_path": "/eOQbEnqxHeKKrTqlaOPEAH0s7Iy.jpg",
      "original_language": "lt",
      "original_title": "Karalių pamaina",
      "genre_ids": [28, 18],
      "backdrop_path": null,
      "adult": false,
      "overview": "A rookie policeman is left alone in a private clinic to guard a comatose suspect of World War II crimes. His shift is long over, yet nobody comes to replace him. However, the youngster is determined not to leave his post until he gets permission from his authorities to do so. Lack of sleep, loneliness, hunger and the persistence to serve his duty turn the young man into a ticking time bomb at the very wrong time. He must decide how far he can go guarding this suspect who is hated to death by everyone.",
      "release_date": "2016-10-21"
    }
  ]
}
