{
  "page": 1,
  "total_results": 60,
  "total_pages": 3,
  "results": [
    {
      "vote_count": 33,
      "id": 445768,
      "video": false,
      "vote_average": 4.7,
      "title": "Rodin",
      "popularity": 6.499,
      "poster_path": "/3bQGnpTM2uluIMC1wfZWW5ldunp.jpg",
      "original_language": "fr",
      "original_title": "Rodin",
      "genre_ids": [18, 10749],
      "backdrop_path": "/fyOUFrJbKm271A4meFqzX3mg96G.jpg",
      "adult": false,
      "overview": "Auguste Rodin (1840-1917), man of the people, autodidact and revolutionary sculptor - the most brilliant of his era. At 42, Rodin meets Camille Claudel, a young woman desperate to become his assistant. He quickly acknowledges her as his most able pupil, and treats her as an equal in matters of creation.",
      "release_date": "2017-08-31"
    },
    {
      "vote_count": 1,
      "id": 479581,
      "video": false,
      "vote_average": 10,
      "title": "Stealing Rodin",
      "popularity": 0.15,
      "poster_path": "/cJ8Bpnk3QSflMS2UMYNwLw1X4HM.jpg",
      "original_language": "es",
      "original_title": "Robar a Rodin",
      "genre_ids": [99],
      "backdrop_path": "/11aBMesrXnonew1xOTkdV9Vol3j.jpg",
      "adult": false,
      "overview": "One morning in June 2005, the guards of the National Museum of Fine Arts of Chile, noticed that a millionaire Auguste Rodin sculpture had been stolen. 24 hours after the event a shy art student returns the piece arguing that he had stolen it as part of an artistic project. A documentary that explores the dilemmas of the artist and contemporary art.",
      "release_date": "2017-11-02"
    },
    {
      "vote_count": 0,
      "id": 58408,
      "video": false,
      "vote_average": 0,
      "title": "Bigard - Le Penseur de Rodin",
      "popularity": 0.25,
      "poster_path": "/rMbGV7muibIVkBqLCaMM3loYeHK.jpg",
      "original_language": "fr",
      "original_title": "Bigard - Le Penseur de Rodin",
      "genre_ids": [35],
      "backdrop_path": null,
      "adult": false,
      "overview": "",
      "release_date": ""
    },
    {
      "vote_count": 85,
      "id": 426830,
      "video": false,
      "vote_average": 5.7,
      "title": "Family Heist",
      "popularity": 6.041,
      "poster_path": "/AfUebvbwsS4DPihTNcWpjBBv2Bs.jpg",
      "original_language": "fr",
      "original_title": "Mes trésors",
      "genre_ids": [35],
      "backdrop_path": "/7KHMY8C8s9h0ziJd0oTiaZsdNUh.jpg",
      "adult": false,
      "overview": "A high-profile burglar reconciles with his two daughters (half-siblings) to help him retaliate against his ex-partner who betrayed him.",
      "release_date": "2017-01-04"
    },
    {
      "vote_count": 116,
      "id": 32390,
      "video": false,
      "vote_average": 5.5,
      "title": "Royal Palace",
      "popularity": 3.853,
      "poster_path": "/xRhe1M26p9DwwxELvIEjIXPvOQa.jpg",
      "original_language": "fr",
      "original_title": "Palais Royal !",
      "genre_ids": [35],
      "backdrop_path": "/9m51yNikvGON8tQJvUOqLBNW2lo.jpg",
      "adult": false,
      "overview": "Eugenia is the queen of an imaginary European country. When her husband dies, quite unexpectedly, the country is left without a king. According to the law, the new king needs to be married so that leaves out the eldest son. Her youngest son, Prince Arnaud is married to the lovely Armelle and they have two young children. They become the future rulers of the kingdom.",
      "release_date": "2005-11-23"
    },
    {
      "vote_count": 311,
      "id": 309,
      "video": false,
      "vote_average": 7.8,
      "title": "The Celebration",
      "popularity": 5.126,
      "poster_path": "/4WOy4h5FyoqyiBmiGfyp90b6AGv.jpg",
      "original_language": "da",
      "original_title": "Festen",
      "genre_ids": [18],
      "backdrop_path": "/fk9rDUXhLKzhGgjO6oCOr4zYPcn.jpg",
      "adult": false,
      "overview": "A grandiose party to celebrate a sixtieth birthday unleashes a family drama with all the lies that conceal horrendous secrets. The eldest son, Christian, stages a showdown with the popular pater familias; his provocative, moving after-dinner speech dislodges all the masks, which finally fall completely as the father-son conflict intensifies and the bewildered guests look on.",
      "release_date": "1998-06-19"
    },
    {
      "vote_count": 126,
      "id": 5854,
      "video": false,
      "vote_average": 6.7,
      "title": "Family Plot",
      "popularity": 4.789,
      "poster_path": "/6VPkrvTFpTGb4QJFWceMd6Y7IPp.jpg",
      "original_language": "en",
      "original_title": "Family Plot",
      "genre_ids": [35, 80, 53],
      "backdrop_path": "/7fDH5TBYpBVHvpcpM7DSI2caSs7.jpg",
      "adult": false,
      "overview": "Lighthearted suspense film about a phony psychic/con artist and her taxi driver/private investigator boyfriend who encounter a pair of serial kidnappers while trailing a missing heir in California.",
      "release_date": "1976-04-09"
    },
    {
      "vote_count": 196,
      "id": 397722,
      "video": false,
      "vote_average": 6.3,
      "title": "Thoroughbreds",
      "popularity": 13.24,
      "poster_path": "/pIxZzTfITqBpZxbIGsV01DcoHsT.jpg",
      "original_language": "en",
      "original_title": "Thoroughbreds",
      "genre_ids": [18, 53],
      "backdrop_path": "/iKSONLvFh10sWSFBrixGLdgvh3V.jpg",
      "adult": false,
      "overview": "Two teenage girls in suburban Connecticut rekindle their unlikely friendship after years of growing apart. In the process, they learn that neither is what she seems to be, and that a murder might solve both of their problems.",
      "release_date": "2018-03-09"
    },
    {
      "vote_count": 0,
      "id": 133447,
      "video": false,
      "vote_average": 0,
      "title": "Long Live the Family!",
      "popularity": 0.269,
      "poster_path": "/pUHqNnJTsSEJgStf6NIVxucfcdK.jpg",
      "original_language": "cs",
      "original_title": "Rodina je základ státu",
      "genre_ids": [80, 18],
      "backdrop_path": "/16b1Vc9eJKLeEqAX1HQXg5M6ZQX.jpg",
      "adult": false,
      "overview": "Libor, a former teacher, enjoys a well-paid position as a bank manager, living in a luxurious villa outside Prague. His business partners are taken into custody and the authorities have a few questions for him to answer. Rather than wait around, he decides to take off to Moravia with his wife and two children. In the process, he pretends that everything is normal, rediscovers the value of family life, meets up with a former colleague lost in provincial obscurity, and becomes the object of a manhunt. Libor is not a criminal type, merely someone who signs cheques and is drawn into a business world failing to recognise its own criminality (he doesn’t even flee the country).",
      "release_date": "2011-10-13"
    },
    {
      "vote_count": 47,
      "id": 19084,
      "video": false,
      "vote_average": 4.5,
      "title": "Johnson Family Vacation",
      "popularity": 4.394,
      "poster_path": "/1lhP0MNneXLwNBw7KTqhikT3U8U.jpg",
      "original_language": "en",
      "original_title": "Johnson Family Vacation",
      "genre_ids": [35, 10751],
      "backdrop_path": "/rsYsH5SeKKvLcKBNyCPgXmHUjVT.jpg",
      "adult": false,
      "overview": "AAA can't help the roadside emergency that is the JOHNSON FAMILY VACATION. Even the on-board navigation system has a meltdown on Nate Johnson and his family's cross-country trek to their annual family reunion/grudge match. Reluctantly along for the ride are Nate's wife, who's only in it for the kids; their rapper-wannabe son; their teenage daughter who's fashioned herself as the next Lolita; and their youngest, whose imaginary dog Nate just can't seem to keep track of. Can the Johnsons survive each other and all the obstacles the road throws at them to make it to Caruthersville, Missouri? Can they find Missouri?",
      "release_date": "2004-04-07"
    },
    {
      "vote_count": 3,
      "id": 362243,
      "video": false,
      "vote_average": 7,
      "title": "Family Film",
      "popularity": 0.136,
      "poster_path": "/fvOczsyGbjiEWFa9HVxTtV4vKCh.jpg",
      "original_language": "cs",
      "original_title": "Rodinný film",
      "genre_ids": [],
      "backdrop_path": "/qRBZFrjIKuLnFIdKc5FwidMfsgB.jpg",
      "adult": false,
      "overview": "A couple embark on an early vacation. Left alone, their children cut loose until the boy gets caught for skipping school and things take an unexpected turn. Boasting exquisite camera work, the film is also unforgettable for its wholly original ending.",
      "release_date": "2016-02-18"
    },
    {
      "vote_count": 735,
      "id": 9530,
      "video": false,
      "vote_average": 5.7,
      "title": "RV",
      "popularity": 7.767,
      "poster_path": "/eqV0JjfwcEJuK3JPZ2rsNvS1p30.jpg",
      "original_language": "en",
      "original_title": "RV",
      "genre_ids": [35],
      "backdrop_path": "/hY3MIfukrNWveQlAiP0bQJzCqL3.jpg",
      "adult": false,
      "overview": "Climbing aboard their mammoth recreational vehicle for a cross-country road trip to the Colorado Rockies, the McNeive family – led by dysfunctional patriarch, Bob – prepares for the adventure of a lifetime. But spending two weeks together in one seriously small space has a way of cramping their style.",
      "release_date": "2006-04-28"
    },
    {
      "vote_count": 1459,
      "id": 2907,
      "video": false,
      "vote_average": 6.9,
      "title": "The Addams Family",
      "popularity": 10.595,
      "poster_path": "/ajiQj0jbacMAmPxDU3fP9TeIfTi.jpg",
      "original_language": "en",
      "original_title": "The Addams Family",
      "genre_ids": [27, 35, 14],
      "backdrop_path": "/QF8QdGN6SJm6A2dvFG0pA3SBV6.jpg",
      "adult": false,
      "overview": "Uncle Fester has been missing for 25 years. An evil doctor finds out and introduces a fake Fester in an attempt to get the Addams Family's money. The youngest daughter has some doubts about the new uncle Fester, but the fake uncle adapts very well to the strange family. Can the doctor carry out her evil plans and take over the Addams Family's fortune?",
      "release_date": "1991-11-22"
    },
    {
      "vote_count": 77,
      "id": 53486,
      "video": false,
      "vote_average": 6.9,
      "title": "The Family Friend",
      "popularity": 3.023,
      "poster_path": "/uW6uIWyNzE0BvMjhQUjHuZbZjpt.jpg",
      "original_language": "it",
      "original_title": "L'amico di famiglia",
      "genre_ids": [18],
      "backdrop_path": "/gpHpwLJlGACtlST2DPiSO8M99qT.jpg",
      "adult": false,
      "overview": "Geremia, an aging tailor/money lender, is a repulsive, mean, stingy man who lives alone in his shabby house with his scornful, bedridden mother. He has a morbid, obsessive relationship with money and he uses it to insinuate himself into other people's affairs, pretending to be the \"family friend\". One day he is asked by a man to lend him money for the wedding of Rosalba, his daughter. Geremia falls in love at first sight with the bewitching creature and and soon indulges in a \"beauty and the beast\" relationship...",
      "release_date": "2006-10-01"
    },
    {
      "vote_count": 1136,
      "id": 86825,
      "video": false,
      "vote_average": 6.6,
      "title": "Stoker",
      "popularity": 7.427,
      "poster_path": "/mif93qTCI33RyoxhroEK0ANsGbk.jpg",
      "original_language": "en",
      "original_title": "Stoker",
      "genre_ids": [18, 27, 53],
      "backdrop_path": "/6BqAHEKpm88t3z678mxJnpWNx55.jpg",
      "adult": false,
      "overview": "After India's father dies, her Uncle Charlie, who she never knew existed, comes to live with her and her unstable mother. She comes to suspect this mysterious, charming man has ulterior motives and becomes increasingly infatuated with him.",
      "release_date": "2013-02-28"
    },
    {
      "vote_count": 162,
      "id": 8293,
      "video": false,
      "vote_average": 7.1,
      "title": "Howards End",
      "popularity": 5.76,
      "poster_path": "/snkVd4djGgSPlcYsSb45yScyKx9.jpg",
      "original_language": "en",
      "original_title": "Howards End",
      "genre_ids": [18, 10749],
      "backdrop_path": "/dq5JGFP6a3B7e8kpDD0Mxj7nOca.jpg",
      "adult": false,
      "overview": "A saga of class relations and changing times in an Edwardian England on the brink of modernity, the film centers on liberal Margaret Schlegel, who, along with her sister Helen, becomes involved with two couples: wealthy, conservative industrialist Henry Wilcox and his wife Ruth, and the downwardly mobile working-class Leonard Bast and his mistress Jackie.",
      "release_date": "1992-03-13"
    },
    {
      "vote_count": 361,
      "id": 9043,
      "video": false,
      "vote_average": 6.2,
      "title": "The Family Stone",
      "popularity": 5.701,
      "poster_path": "/m9JjA1pPVMZKmJkShq6iTrItkUW.jpg",
      "original_language": "en",
      "original_title": "The Family Stone",
      "genre_ids": [35, 18, 10749],
      "backdrop_path": "/w1WeTpAeXBOPtcJZZjYVOz9mGbE.jpg",
      "adult": false,
      "overview": "An uptight, conservative, businesswoman accompanies her boyfriend to his eccentric and outgoing family's annual Christmas celebration and finds that she's a fish out of water in their free-spirited way of life.",
      "release_date": "2005-12-14"
    },
    {
      "vote_count": 1532,
      "id": 2277,
      "video": false,
      "vote_average": 7.1,
      "title": "Bicentennial Man",
      "popularity": 8.927,
      "poster_path": "/pt57Kwkd2g2xdYFZKx3yCoz9Xim.jpg",
      "original_language": "en",
      "original_title": "Bicentennial Man",
      "genre_ids": [35, 878, 18],
      "backdrop_path": "/cbldDMSYdasHMewxzPqZH7sQGnz.jpg",
      "adult": false,
      "overview": "Richard Martin buys a gift, a new NDR-114 robot. The product is named Andrew by the youngest of the family's children. \"Bicentennial Man\" follows the life and times of Andrew, a robot purchased as a household appliance programmed to perform menial tasks. As Andrew begins to experience emotions and creative thought, the Martin family soon discovers they don't have an ordinary robot.",
      "release_date": "1999-12-17"
    },
    {
      "vote_count": 1892,
      "id": 9428,
      "video": false,
      "vote_average": 7.4,
      "title": "The Royal Tenenbaums",
      "popularity": 8.653,
      "poster_path": "/5xw30y0pSaMtTcuZW5VaQPiR8qb.jpg",
      "original_language": "en",
      "original_title": "The Royal Tenenbaums",
      "genre_ids": [35, 18],
      "backdrop_path": "/aoy8HmDvoGPwWiGnQKFErg7FVYB.jpg",
      "adult": false,
      "overview": "Royal Tenenbaum and his wife Etheline had three children and then they separated. All three children are extraordinary --- all geniuses. Virtually all memory of the brilliance of the young Tenenbaums was subsequently erased by two decades of betrayal, failure, and disaster. Most of this was generally considered to be their father's fault. \"The Royal Tenenbaums\" is the story of the family's sudden, unexpected reunion one recent winter.",
      "release_date": "2001-10-12"
    },
    {
      "vote_count": 8354,
      "id": 9806,
      "video": false,
      "vote_average": 7.6,
      "title": "The Incredibles",
      "popularity": 23.205,
      "poster_path": "/2LqaLgk4Z226KkgPJuiOQ58wvrm.jpg",
      "original_language": "en",
      "original_title": "The Incredibles",
      "genre_ids": [28, 12, 16, 10751],
      "backdrop_path": "/wiDGnsn9RtNglgKQy4J1jZQBG5v.jpg",
      "adult": false,
      "overview": "Bob Parr has given up his superhero days to log in time as an insurance adjuster and raise his three children with his formerly heroic wife in suburbia. But when he receives a mysterious assignment, it's time to get back into costume.",
      "release_date": "2004-11-05"
    }
  ]
}
